[
    {
        "kyc": [
            [
                "__origination__",
                "12235"
            ]
        ],
        "issuer": [
            [
                "__origination__",
                "134381"
            ]
        ]
    },
    {
        "kyc": [
            [
                "__origination__",
                "12235"
            ]
        ],
        "issuer": [
            [
                "__origination__",
                "134381"
            ],
            [
                "addToken",
                "47192"
            ]
        ]
    },
    {
        "kyc": [
            [
                "__origination__",
                "12235"
            ]
        ],
        "issuer": [
            [
                "__origination__",
                "134381"
            ],
            [
                "addToken",
                "47192"
            ],
            [
                "setToken",
                "47356"
            ],
            [
                "setToken",
                "47356"
            ]
        ]
    },
    {
        "kyc": [
            [
                "__origination__",
                "12235"
            ]
        ],
        "issuer": [
            [
                "__origination__",
                "134381"
            ],
            [
                "setRegistrar",
                "47222"
            ],
            [
                "setRegistrar",
                "47354"
            ]
        ]
    },
    {
        "kyc": [
            [
                "__origination__",
                "12235"
            ]
        ],
        "issuer": [
            [
                "__origination__",
                "134381"
            ],
            [
                "setAccount",
                "47632"
            ],
            [
                "setAccount",
                "47632"
            ]
        ]
    },
    {
        "kyc": [
            [
                "__origination__",
                "12235"
            ]
        ],
        "issuer": [
            [
                "__origination__",
                "134381"
            ],
            [
                "updateCountryRestrictions",
                "47616"
            ]
        ]
    },
    {
        "kyc": [
            [
                "__origination__",
                "12235"
            ]
        ],
        "issuer": [
            [
                "__origination__",
                "134381"
            ],
            [
                "updateCountryRestrictions",
                "47616"
            ],
            [
                "removeCountryRestrictions",
                "47389"
            ]
        ]
    },
    {
        "kyc": [
            [
                "__origination__",
                "12235"
            ],
            [
                "addMembers",
                "13810"
            ],
            [
                "addMembers",
                "13810"
            ],
            [
                "setMemberCountry",
                "14384"
            ],
            [
                "setMemberCountry",
                "14384"
            ],
            [
                "addMembers",
                "13810"
            ],
            [
                "addMembers",
                "13810"
            ],
            [
                "addMembers",
                "13810"
            ],
            [
                "addMembers",
                "13810"
            ]
        ],
        "issuer": [
            [
                "__origination__",
                "134381"
            ],
            [
                "setRegistrar",
                "47222"
            ],
            [
                "setAccount",
                "47790"
            ],
            [
                "setRegistrar",
                "47354"
            ],
            [
                "setAccount",
                "47790"
            ],
            [
                "updateCountryRestrictions",
                "47684"
            ],
            [
                "updateCountryRestrictions",
                "47684"
            ],
            [
                "addToken",
                "47350"
            ],
            [
                "setToken",
                "47514"
            ],
            [
                "checkTransfer",
                "167139"
            ],
            [
                "setAccount",
                "47948"
            ],
            [
                "setAccount",
                "47948"
            ],
            [
                "setRegistrar",
                "47512"
            ],
            [
                "setRegistrar",
                "47512"
            ],
            [
                "addToken",
                "47482"
            ],
            [
                "setToken",
                "47514"
            ],
            [
                "addToken",
                "47482"
            ],
            [
                "setToken",
                "47514"
            ],
            [
                "setToken",
                "47514"
            ],
            [
                "setGlobalRestriction",
                "47413"
            ],
            [
                "setGlobalRestriction",
                "47413"
            ]
        ]
    },
    {
        "kyc": [
            [
                "__origination__",
                "12235"
            ],
            [
                "addMembers",
                "13810"
            ],
            [
                "addMembers",
                "13810"
            ],
            [
                "setMemberCountry",
                "14384"
            ],
            [
                "setMemberCountry",
                "14384"
            ],
            [
                "addMembers",
                "13810"
            ],
            [
                "addMembers",
                "13810"
            ],
            [
                "addMembers",
                "13810"
            ],
            [
                "addMembers",
                "13810"
            ]
        ],
        "issuer": [
            [
                "__origination__",
                "134381"
            ],
            [
                "setRegistrar",
                "47222"
            ],
            [
                "setAccount",
                "47790"
            ],
            [
                "setRegistrar",
                "47354"
            ],
            [
                "setAccount",
                "47790"
            ],
            [
                "updateCountryRestrictions",
                "47684"
            ],
            [
                "updateCountryRestrictions",
                "47684"
            ],
            [
                "addToken",
                "47350"
            ],
            [
                "setToken",
                "47514"
            ],
            [
                "setAccount",
                "47948"
            ],
            [
                "setAccount",
                "47948"
            ],
            [
                "setRegistrar",
                "47512"
            ],
            [
                "setRegistrar",
                "47512"
            ],
            [
                "addToken",
                "47482"
            ],
            [
                "setToken",
                "47514"
            ],
            [
                "addToken",
                "47482"
            ],
            [
                "setToken",
                "47514"
            ],
            [
                "setToken",
                "47514"
            ],
            [
                "setGlobalRestriction",
                "47413"
            ],
            [
                "setGlobalRestriction",
                "47413"
            ],
            [
                "transferTokens",
                "167220"
            ],
            [
                "transferTokens",
                "167493"
            ],
            [
                "transferTokens",
                "167491"
            ],
            [
                "transferTokens",
                "167491"
            ],
            [
                "transferTokens",
                "167491"
            ],
            [
                "transferTokens",
                "167493"
            ]
        ]
    },
    {
        "kyc": [
            [
                "__origination__",
                "12235"
            ],
            [
                "addMembers",
                "13810"
            ],
            [
                "addMembers",
                "13810"
            ],
            [
                "setMemberCountry",
                "14384"
            ],
            [
                "setMemberCountry",
                "14384"
            ],
            [
                "addMembers",
                "13810"
            ],
            [
                "addMembers",
                "13810"
            ],
            [
                "addMembers",
                "13810"
            ],
            [
                "addMembers",
                "13810"
            ]
        ],
        "issuer": [
            [
                "__origination__",
                "134381"
            ],
            [
                "setRegistrar",
                "47222"
            ],
            [
                "setAccount",
                "47790"
            ],
            [
                "setRegistrar",
                "47354"
            ],
            [
                "setAccount",
                "47790"
            ],
            [
                "updateCountryRestrictions",
                "47684"
            ],
            [
                "updateCountryRestrictions",
                "47684"
            ],
            [
                "addToken",
                "47350"
            ],
            [
                "setToken",
                "47514"
            ],
            [
                "setAccount",
                "47948"
            ],
            [
                "setAccount",
                "47948"
            ],
            [
                "setRegistrar",
                "47512"
            ],
            [
                "setRegistrar",
                "47512"
            ],
            [
                "addToken",
                "47482"
            ],
            [
                "setToken",
                "47514"
            ],
            [
                "addToken",
                "47482"
            ],
            [
                "setToken",
                "47514"
            ],
            [
                "setToken",
                "47514"
            ],
            [
                "setGlobalRestriction",
                "47413"
            ],
            [
                "setGlobalRestriction",
                "47413"
            ],
            [
                "modifyTokenTotalSupply",
                "163738"
            ],
            [
                "modifyTokenTotalSupply",
                "164015"
            ],
            [
                "modifyTokenTotalSupply",
                "164009"
            ],
            [
                "modifyTokenTotalSupply",
                "164009"
            ]
        ]
    }
]